[gd_scene load_steps=2 format=2]

[ext_resource path="res://src/objects/Perks/CurvableBulletPerk.gd" type="Script" id=1]

[node name="CurvableBulletPerk" type="Node"]
script = ExtResource( 1 )
up_force = 50.0
down_force = 50.0
left_force = 50.0
right_force = 50.0
