[gd_scene load_steps=9 format=2]

[ext_resource path="res://asset/NormalKnight/Knight4.png" type="Texture" id=1]
[ext_resource path="res://asset/NormalKnight/Knight6.png" type="Texture" id=2]
[ext_resource path="res://asset/NormalKnight/Knight3.png" type="Texture" id=3]
[ext_resource path="res://asset/NormalKnight/Knight2.png" type="Texture" id=4]
[ext_resource path="res://asset/NormalKnight/Knight5.png" type="Texture" id=5]
[ext_resource path="res://asset/NormalKnight/Knight1.png" type="Texture" id=6]

[sub_resource type="RectangleShape2D" id=1]
extents = Vector2( 10.0054, 13.8236 )

[sub_resource type="SpriteFrames" id=2]
animations = [ {
"frames": [ ExtResource( 6 ), ExtResource( 4 ), ExtResource( 3 ), ExtResource( 1 ), ExtResource( 5 ), ExtResource( 2 ) ],
"loop": true,
"name": "idle",
"speed": 6.0
} ]

[node name="Player" type="KinematicBody2D"]
scale = Vector2( 4, 4 )

[node name="CollisionShape2D" type="CollisionShape2D" parent="."]
shape = SubResource( 1 )

[node name="AnimatedSprite" type="AnimatedSprite" parent="."]
frames = SubResource( 2 )
animation = "idle"
frame = 4
playing = true
