[gd_scene load_steps=2 format=2]

[ext_resource path="res://src/actors/Perks/ShootPerk.gd" type="Script" id=1]

[node name="ShootPerk" type="Node"]
script = ExtResource( 1 )
bullet_scene_paths = [ "res://src/objects/bullets/RedBullet.tscn", "res://src/objects/bullets/GreenBullet.tscn" ]
